Data607-Week10-Sentiment Analysis
…
        series.full <- rbind(series.full, clean)
}

# set factor to keep books in order of publication:
series.full$book <- factor(series.full$book, levels = rev(titles))

#final tidy dataset ready for Analysis:
series.full

## # A tibble: 1,089,386 x 3
##    book                chapter word   
##    <fct>                 <int> <chr>  
##  1 Philosopher's Stone       1 the    
##  2 Philosopher's Stone       1 boy    
##  3 Philosopher's Stone       1 who    
##  4 Philosopher's Stone       1 lived  
##  5 Philosopher's Stone       1 mr     
##  6 Philosopher's Stone       1 and    
##  7 Philosopher's Stone       1 mrs    
##  8 Philosopher's Stone       1 dursley
##  9 Philosopher's Stone       1 of     
## 10 Philosopher's Stone       1 number 
## # ... with 1,089,376 more rows
…
## Classes 'tbl_df', 'tbl' and 'data.frame':    4150 obs. of  2 variables:
##  $ word     : chr  "abandon" "abandoned" "abandoning" "abandonment" ...
##  $ sentiment: chr  "negative" "negative" "negative" "negative" ...

Score Analysis from the loughran lexicon

We will first Remove Stop Words from the book series dataset.This will help us to look and process a reduced and focused word sets for our analysis:

#We will use the anti_join() function to remove all stop words from our series set:
series.main <- series.full %>%
  anti_join(stop_words)

series.main

## # A tibble: 409,338 x 3
##    book                chapter word     
##    <fct>                 <int> <chr>    
##  1 Philosopher's Stone       1 boy      
##  2 Philosopher's Stone       1 lived    
##  3 Philosopher's Stone       1 dursley  
##  4 Philosopher's Stone       1 privet   
##  5 Philosopher's Stone       1 drive    
##  6 Philosopher's Stone       1 proud    
##  7 Philosopher's Stone       1 perfectly
##  8 Philosopher's Stone       1 normal   
##  9 Philosopher's Stone       1 people   
## 10 Philosopher's Stone       1 expect   
## # ... with 409,328 more rows
…
We can see there are more negative words then positive words in the first Book.

Chapter wise Sentiments score:

# We will just take the positive and negative sentiments across all books in the series chappter wise grouped:
series.main.sentiment <- series.main %>%
  inner_join(loughran.sentiments) %>%
  count(book, index = chapter %/% 1, sentiment) %>%
  spread(sentiment, n, fill = 0) %>%
  mutate(sentiment = positive - negative)

series.main.sentiment

## # A tibble: 200 x 9
##    book  index constraining litigious negative positive superfluous uncertainty
##    <fct> <dbl>        <dbl>     <dbl>    <dbl>    <dbl>       <dbl>       <dbl>
##  1 Deat~     1            4         2       47       20           0          10
##  2 Deat~     2            1        11       85       26           0          16
##  3 Deat~     3            0         2       45       10           0           7
##  4 Deat~     4            2         1       59        7           0           9
##  5 Deat~     5            1         4       85        5           0          16
##  6 Deat~     6            6         3       92       25           0          19
##  7 Deat~     7            2         5       75       33           0          18
##  8 Deat~     8            1         4       63       30           0          15
##  9 Deat~     9            1         3       51        4           0           4
## 10 Deat~    10            8         2       75       28           0          11
## # ... with 190 more rows, and 1 more variable: sentiment <dbl>
…
# nrc sentiments joy:
nrc.sentiments.joy <- nrc.sentiments %>%
  filter(sentiment == 'joy')

tidy_books %>%
  filter(book == "Emma") %>%
  inner_join(nrc.sentiments.joy) %>%
  count(word, sort = TRUE)

## Joining, by = "word"

## # A tibble: 303 x 2
##    word        n
##    <chr>   <int>
##  1 good      359
##  2 young     192
##  3 friend    166
##  4 hope      143
##  5 happy     125
##  6 love      117
##  7 deal       92
##  8 found      92
##  9 present    89
## 10 kind       82
## # ... with 293 more rows

# nrc sentiments sadness:
nrc.sentiments.sadness <- nrc.sentiments %>%
  filter(sentiment == 'sadness')

tidy_books %>%
  filter(book == "Emma") %>%
  inner_join(nrc.sentiments.sadness) %>%
  count(word, sort = TRUE)

## Joining, by = "word"

## # A tibble: 347 x 2
##    word           n
##    <chr>      <int>
##  1 doubt         98
##  2 ill           72
##  3 bad           60
##  4 leave         58
##  5 mother        57
##  6 feeling       56
##  7 impossible    41
##  8 pain          34
##  9 evil          33
## 10 wanting       33
## # ... with 337 more rows
…
Common Positive and Negative Words

we can analyze word counts that contribute to each sentiment. By implementing count() here with arguments of both word and sentiment, we find out how much each word contributed to each sentiment.

# bing_word_counts:
bing_word_counts <- tidy_books %>%
  inner_join(bing.sentiments) %>%
  count(word, sentiment, sort = TRUE) %>%
  ungroup()

## Joining, by = "word"

bing_word_counts

## # A tibble: 2,585 x 3
##    word     sentiment     n
##    <chr>    <chr>     <int>
##  1 miss     negative   1855
##  2 well     positive   1523
##  3 good     positive   1380
##  4 great    positive    981
##  5 like     positive    725
##  6 better   positive    639
##  7 enough   positive    613
##  8 happy    positive    534
##  9 love     positive    495
## 10 pleasure positive    462
## # ... with 2,575 more rows
…
# custom_stop_words:
custom_stop_words <- bind_rows(tibble(word = c("miss"), 
                                          lexicon = c("custom")), 
                               stop_words)

custom_stop_words

## # A tibble: 1,150 x 2
##    word        lexicon
##    <chr>       <chr>  
##  1 miss        custom 
##  2 a           SMART  
##  3 a's         SMART  
##  4 able        SMART  
##  5 about       SMART  
##  6 above       SMART  
##  7 according   SMART  
##  8 accordingly SMART  
##  9 across      SMART  
## 10 actually    SMART  
## # ... with 1,140 more rows
…
